< GET /api/users?delay=3 HTTP/1.1
< Host: reqres.in
< Accept-Encoding: gzip, deflate
< Connection: keep-alive
< Accept: text/plain
< User-Agent: Mozilla/5.0
< Content-type: application/json
< 

> HTTP/1.1 200 OK
> Date: Sun, 02 Apr 2017 19:43:34 GMT
> Content-Type: application/json; charset=utf-8
> Transfer-Encoding: chunked
> Connection: keep-alive
> Set-Cookie: __cfduid=dd273fc40d310004a8879f5b5b2f677321491162211; expires=Mon, 02-Apr-18 19:43:31 GMT; path=/; domain=.reqres.in; HttpOnly
> X-Powered-By: Express
> Access-Control-Allow-Origin: *
> ETag: W/"1be-q96WkDv6JqfLvIPiRhzWJQ"
> Server: cloudflare-nginx
> CF-RAY: 3496470ca9777606-ARN
> Content-Encoding: gzip
> 
{"page":1,"per_page":3,"total":12,"total_pages":4,"data":[{"id":1,"first_name":"george","last_name":"bluth","avatar":"https://s3.amazonaws.com/uifaces/faces/twitter/calebogden/128.jpg"},{"id":2,"first_name":"lucille","last_name":"bluth","avatar":"https://s3.amazonaws.com/uifaces/faces/twitter/josephstein/128.jpg"},{"id":3,"first_name":"oscar","last_name":"bluth","avatar":"https://s3.amazonaws.com/uifaces/faces/twitter/olegpogodaev/128.jpg"}]}