< GET /api/resource?page=4 HTTP/1.1
< Host: reqres.in
< Connection: keep-alive
< Accept: text/plain
< Accept-Encoding: gzip, deflate
< User-Agent: Mozilla/5.0
< Content-type: application/json
< 

> HTTP/1.1 200 OK
> Date: Sun, 02 Apr 2017 21:52:10 GMT
> Content-Type: application/json; charset=utf-8
> Transfer-Encoding: chunked
> Connection: keep-alive
> Set-Cookie: __cfduid=d1547d087ad07687a54ca9c95ea6de3ec1491169930; expires=Mon, 02-Apr-18 21:52:10 GMT; path=/; domain=.reqres.in; HttpOnly
> X-Powered-By: Express
> Access-Control-Allow-Origin: *
> ETag: W/"105-DZhxw60pSBYRczeaMioncQ"
> Server: cloudflare-nginx
> CF-RAY: 34970382dfea75f4-ARN
> Content-Encoding: gzip
> 
{"page":"4","per_page":3,"total":12,"total_pages":4,"data":[{"id":10,"name":"mimosa","year":2009,"pantone_value":"14-0848"},{"id":11,"name":"turquoise","year":2010,"pantone_value":"15-5519"},{"id":12,"name":"honeysuckle","year":2011,"pantone_value":"18-2120"}]}