< GET /api/users?page=0 HTTP/1.1
< Host: reqres.in
< Connection: keep-alive
< Accept: text/plain
< Accept-Encoding: gzip, deflate
< User-Agent: Mozilla/5.0
< Content-type: application/json
< 

> HTTP/1.1 200 OK
> Date: Sun, 02 Apr 2017 21:52:17 GMT
> Content-Type: application/json; charset=utf-8
> Transfer-Encoding: chunked
> Connection: keep-alive
> Set-Cookie: __cfduid=da4eeef7545dee600b53a11481b906ff11491169936; expires=Mon, 02-Apr-18 21:52:16 GMT; path=/; domain=.reqres.in; HttpOnly
> X-Powered-By: Express
> Access-Control-Allow-Origin: *
> ETag: W/"1c0-anp+G/eZpc5//pzTRLlXUg"
> Server: cloudflare-nginx
> CF-RAY: 349703aa3f837678-ARN
> Content-Encoding: gzip
> 
{"page":"0","per_page":3,"total":12,"total_pages":4,"data":[{"id":1,"first_name":"george","last_name":"bluth","avatar":"https://s3.amazonaws.com/uifaces/faces/twitter/calebogden/128.jpg"},{"id":2,"first_name":"lucille","last_name":"bluth","avatar":"https://s3.amazonaws.com/uifaces/faces/twitter/josephstein/128.jpg"},{"id":3,"first_name":"oscar","last_name":"bluth","avatar":"https://s3.amazonaws.com/uifaces/faces/twitter/olegpogodaev/128.jpg"}]}