< GET /api/users?page=10000 HTTP/1.1
< Host: reqres.in
< Accept: text/plain
< Connection: keep-alive
< User-Agent: Mozilla/5.0
< Accept-Encoding: gzip, deflate
< Content-type: application/json
< 

> HTTP/1.1 200 OK
> Date: Sun, 02 Apr 2017 19:55:54 GMT
> Content-Type: application/json; charset=utf-8
> Transfer-Encoding: chunked
> Connection: keep-alive
> Set-Cookie: __cfduid=daa8436c5aa9992e506c51f2503a4df681491162953; expires=Mon, 02-Apr-18 19:55:53 GMT; path=/; domain=.reqres.in; HttpOnly
> X-Powered-By: Express
> Access-Control-Allow-Origin: *
> ETag: W/"42-exMeNjF/XGx0yJtCdEOVzQ"
> Server: cloudflare-nginx
> CF-RAY: 3496592ba82275e8-ARN
> Content-Encoding: gzip
> 
{"page":"10000","per_page":3,"total":12,"total_pages":4,"data":[]}