< GET /api/resource?page=0 HTTP/1.1
< Host: reqres.in
< Connection: keep-alive
< Accept: text/plain
< Accept-Encoding: gzip, deflate
< User-Agent: Mozilla/5.0
< Content-type: application/json
< 

> HTTP/1.1 200 OK
> Date: Sun, 02 Apr 2017 21:52:10 GMT
> Content-Type: application/json; charset=utf-8
> Transfer-Encoding: chunked
> Connection: keep-alive
> Set-Cookie: __cfduid=ddac0a53a093cf57607796a20adcb60991491169929; expires=Mon, 02-Apr-18 21:52:09 GMT; path=/; domain=.reqres.in; HttpOnly
> X-Powered-By: Express
> Access-Control-Allow-Origin: *
> ETag: W/"104-t4OzJb5mIK18wVdinD8/9A"
> Server: cloudflare-nginx
> CF-RAY: 3497037dafa67606-ARN
> Content-Encoding: gzip
> 
{"page":"0","per_page":3,"total":12,"total_pages":4,"data":[{"id":1,"name":"cerulean","year":2000,"pantone_value":"15-4020"},{"id":2,"name":"fuchsia rose","year":2001,"pantone_value":"17-2031"},{"id":3,"name":"true red","year":2002,"pantone_value":"19-1664"}]}