< GET /api/resource?page=4 HTTP/1.1
< Host: reqres.in
< Accept: text/plain
< Connection: keep-alive
< User-Agent: Mozilla/5.0
< Accept-Encoding: gzip, deflate
< Content-type: application/json
< 

> HTTP/1.1 200 OK
> Date: Sun, 02 Apr 2017 19:55:44 GMT
> Content-Type: application/json; charset=utf-8
> Transfer-Encoding: chunked
> Connection: keep-alive
> Set-Cookie: __cfduid=dfe826f7ad0a6e0a9a8f24df2a900880d1491162943; expires=Mon, 02-Apr-18 19:55:43 GMT; path=/; domain=.reqres.in; HttpOnly
> X-Powered-By: Express
> Access-Control-Allow-Origin: *
> ETag: W/"105-DZhxw60pSBYRczeaMioncQ"
> Server: cloudflare-nginx
> CF-RAY: 349658eecfa0764e-ARN
> Content-Encoding: gzip
> 
{"page":"4","per_page":3,"total":12,"total_pages":4,"data":[{"id":10,"name":"mimosa","year":2009,"pantone_value":"14-0848"},{"id":11,"name":"turquoise","year":2010,"pantone_value":"15-5519"},{"id":12,"name":"honeysuckle","year":2011,"pantone_value":"18-2120"}]}