< GET /api/users?page=4 HTTP/1.1
< Host: reqres.in
< Accept: text/plain
< Connection: keep-alive
< User-Agent: Mozilla/5.0
< Accept-Encoding: gzip, deflate
< Content-type: application/json
< 

> HTTP/1.1 200 OK
> Date: Sun, 02 Apr 2017 19:55:51 GMT
> Content-Type: application/json; charset=utf-8
> Transfer-Encoding: chunked
> Connection: keep-alive
> Set-Cookie: __cfduid=d5230cd2e1339d19ed75c18323054b2011491162951; expires=Mon, 02-Apr-18 19:55:51 GMT; path=/; domain=.reqres.in; HttpOnly
> X-Powered-By: Express
> Access-Control-Allow-Origin: *
> ETag: W/"1c6-up2fu3o1HMk+Bktp/Inang"
> Server: cloudflare-nginx
> CF-RAY: 3496591e8d9c75ee-ARN
> Content-Encoding: gzip
> 
{"page":"4","per_page":3,"total":12,"total_pages":4,"data":[{"id":10,"first_name":"byron","last_name":"bluth","avatar":"https://s3.amazonaws.com/uifaces/faces/twitter/russoedu/128.jpg"},{"id":11,"first_name":"george michael","last_name":"bluth","avatar":"https://s3.amazonaws.com/uifaces/faces/twitter/mrmoiree/128.jpg"},{"id":12,"first_name":"maeby","last_name":"funke","avatar":"https://s3.amazonaws.com/uifaces/faces/twitter/hebertialmeida/128.jpg"}]}